{
  "project_info": {
    "project_number": "4606992553",
    "firebase_url": "https://testintegration-d7d66.firebaseio.com",
    "project_id": "testintegration-d7d66",
    "storage_bucket": "testintegration-d7d66.appspot.com"
  },
  "client": [
    {
      "client_info": {
        "mobilesdk_app_id": "1:4606992553:android:eb94ecf9592bfcf15409b8",
        "android_client_info": {
          "package_name": "com.upax.testintegration"
        }
      },
      "oauth_client": [
        {
          "client_id": "4606992553-8l567rgr9b303aca6hg0jlpnfgmcnk2g.apps.googleusercontent.com",
          "client_type": 3
        }
      ],
      "api_key": [
        {
          "current_key": "AIzaSyBwdwxIrIfWOOWeg5gedgT6g2dnR00dBHs"
        }
      ],
      "services": {
        "appinvite_service": {
          "other_platform_oauth_client": [
            {
              "client_id": "4606992553-8l567rgr9b303aca6hg0jlpnfgmcnk2g.apps.googleusercontent.com",
              "client_type": 3
            }
          ]
        }
      }
    }
  ],
  "configuration_version": "1"
}